<svg width="34" height="22" viewBox="0 0 34 22" fill="none" xmlns="http://www.w3.org/2000/svg">
<path d="M2.33333 12.8337C3.34585 12.8337 4.16667 12.0128 4.16667 11.0003C4.16667 9.9878 3.34585 9.16699 2.33333 9.16699C1.32081 9.16699 0.5 9.9878 0.5 11.0003C0.5 12.0128 1.32081 12.8337 2.33333 12.8337Z" fill="white"/>
<path d="M31.7766 9.16699H9.55659C8.60481 9.16699 7.83325 9.93855 7.83325 10.8903V11.1103C7.83325 12.0621 8.60481 12.8337 9.55659 12.8337H31.7766C32.7284 12.8337 33.4999 12.0621 33.4999 11.1103V10.8903C33.4999 9.93855 32.7284 9.16699 31.7766 9.16699Z" fill="white"/>
<path d="M31.7767 18.333H2.22333C1.27156 18.333 0.5 19.1046 0.5 20.0563V20.2763C0.5 21.2281 1.27156 21.9997 2.22333 21.9997H31.7767C32.7284 21.9997 33.5 21.2281 33.5 20.2763V20.0563C33.5 19.1046 32.7284 18.333 31.7767 18.333Z" fill="white"/>
<path d="M31.7767 0H2.22333C1.27156 0 0.5 0.771563 0.5 1.72333V1.94333C0.5 2.8951 1.27156 3.66667 2.22333 3.66667H31.7767C32.7284 3.66667 33.5 2.8951 33.5 1.94333V1.72333C33.5 0.771563 32.7284 0 31.7767 0Z" fill="white"/>
</svg>
