<svg width="27" height="27" viewBox="0 0 27 27" fill="none" xmlns="http://www.w3.org/2000/svg">
<g opacity="0.65">
<rect x="-0.75" y="0.75" width="11.5645" height="11.5645" rx="1.25" transform="matrix(-1 0 0 1 11.5645 13.9355)" stroke="#2C343E" stroke-opacity="0.97" stroke-width="1.5"/>
<rect x="-0.75" y="0.75" width="10.6935" height="11.5645" rx="1.25" transform="matrix(-1 0 0 1 25.5 13.9355)" stroke="#2C343E" stroke-opacity="0.97" stroke-width="1.5"/>
<rect x="-0.75" y="0.75" width="10.6935" height="11.5645" rx="1.25" transform="matrix(-1 0 0 1 25.5 0)" stroke="#2C343E" stroke-opacity="0.97" stroke-width="1.5"/>
<rect x="-0.75" y="0.75" width="11.5645" height="11.5645" rx="1.25" transform="matrix(-1 0 0 1 11.5645 0)" stroke="#2C343E" stroke-opacity="0.97" stroke-width="1.5"/>
</g>
</svg>
