<svg width="33" height="27" viewBox="0 0 33 27" fill="none" xmlns="http://www.w3.org/2000/svg">
<rect width="22.718" height="22.718" rx="5" transform="matrix(-1 0 0 1 32.0762 0)" fill="#FBFDFF"/>
<rect x="-0.75" y="0.75" width="21.218" height="21.218" rx="4.25" transform="matrix(-1 0 0 1 30.5762 0)" stroke="#2C343E" stroke-opacity="0.97" stroke-width="1.5"/>
<rect width="22.718" height="22.718" rx="5" transform="matrix(-1 0 0 1 27.7487 1.79639)" fill="white"/>
<rect x="-0.75" y="0.75" width="21.218" height="21.218" rx="4.25" transform="matrix(-1 0 0 1 26.2487 1.79639)" stroke="#2C343E" stroke-opacity="0.97" stroke-width="1.5"/>
<rect width="22.718" height="22.718" rx="5" transform="matrix(-1 0 0 1 23.4218 3.59277)" fill="white"/>
<rect x="-0.75" y="0.75" width="21.218" height="21.218" rx="4.25" transform="matrix(-1 0 0 1 21.9218 3.59277)" stroke="#2C343E" stroke-opacity="0.97" stroke-width="1.5"/>
</svg>
