<svg width="28" height="28" viewBox="0 0 28 28" fill="none" xmlns="http://www.w3.org/2000/svg">
<path opacity="0.65" d="M27.8289 7.5504C27.6549 7.29637 27.4212 7.16935 27.1281 7.16935H8.46549L7.03625 2.17339C6.90799 1.72177 6.73391 1.33602 6.51403 1.01613C6.29415 0.696237 6.06052 0.47043 5.81315 0.33871C5.56579 0.206989 5.35048 0.117608 5.16725 0.0705645C4.98401 0.0235215 4.80078 0 4.61754 0H0.852046C0.61384 0 0.41228 0.0846774 0.247368 0.254032C0.0824561 0.423387 0 0.639785 0 0.903226C0 1.05376 0.0366471 1.1996 0.109941 1.34073C0.183236 1.48185 0.288596 1.59005 0.426023 1.66532C0.56345 1.74059 0.705458 1.77823 0.852046 1.77823H4.61754C4.69083 1.77823 4.75955 1.78763 4.82368 1.80645C4.88781 1.82527 4.97485 1.90524 5.08479 2.04637C5.19473 2.1875 5.28635 2.39919 5.35965 2.68145L10.2246 21.0282C10.2612 21.1411 10.3208 21.2493 10.4032 21.3528C10.4857 21.4563 10.5819 21.5363 10.6918 21.5927C10.8017 21.6492 10.9208 21.6774 11.0491 21.6774H22.9228C23.106 21.6774 23.2755 21.621 23.4313 21.5081C23.587 21.3952 23.6924 21.254 23.7474 21.0847L27.9526 8.38306C28.0442 8.08199 28.003 7.80444 27.8289 7.5504ZM22.3181 19.871H11.7362L8.93274 8.97581H25.8637L22.3181 19.871ZM20.5865 23.4839C19.9819 23.4839 19.4642 23.705 19.0336 24.1472C18.603 24.5894 18.3877 25.121 18.3877 25.7419C18.3877 26.3629 18.603 26.8945 19.0336 27.3367C19.4642 27.7789 19.9819 28 20.5865 28C21.1912 28 21.7089 27.7789 22.1395 27.3367C22.5701 26.8945 22.7854 26.3629 22.7854 25.7419C22.7854 25.121 22.5701 24.5894 22.1395 24.1472C21.7089 23.705 21.1912 23.4839 20.5865 23.4839ZM12.6708 23.4839C12.2676 23.4839 11.8966 23.5874 11.5576 23.7944C11.2186 24.0013 10.9529 24.2742 10.7605 24.6129C10.5681 24.9516 10.4719 25.328 10.4719 25.7419C10.4719 26.3629 10.6872 26.8945 11.1178 27.3367C11.5484 27.7789 12.0661 28 12.6708 28C13.2754 28 13.7931 27.7789 14.2237 27.3367C14.6543 26.8945 14.8696 26.3629 14.8696 25.7419C14.8696 25.5914 14.8558 25.4409 14.8284 25.2903C14.8009 25.1398 14.7596 24.9987 14.7047 24.8669C14.6497 24.7352 14.581 24.6082 14.4985 24.4859C14.4161 24.3636 14.3245 24.2507 14.2237 24.1472C14.1229 24.0437 14.013 23.9496 13.8939 23.8649C13.7747 23.7802 13.6511 23.7097 13.5228 23.6532C13.3945 23.5968 13.2571 23.5544 13.1105 23.5262C12.9639 23.498 12.8173 23.4839 12.6708 23.4839Z" fill="#2C343E" fill-opacity="0.97"/>
</svg>
